…
``` r
study_data_clean = 
  study_data %>% 
  unnest(individual_data) %>% 
  separate(files, into = c("study_group", "subject_id"), sep = "_") %>% 
  gather(key = week, value = obs, "week_1":"week_8") %>% 
  mutate(
    subject_id = str_replace(subject_id, "\\.csv", ""),
    study_group = recode(study_group, con = "Control", exp = "Experimental"),
    week = str_replace(week, "week_", "")) 
study_data_clean
```

    ## # A tibble: 160 × 4
    ##    study_group subject_id week    obs
    ##    <chr>       <chr>      <chr> <dbl>
    ##  1 Control     01         1      0.2 
    ##  2 Control     02         1      1.13
    ##  3 Control     03         1      1.77
    ##  4 Control     04         1      1.04
    ##  5 Control     05         1      0.47
    ##  6 Control     06         1      2.37
    ##  7 Control     07         1      0.03
    ##  8 Control     08         1     -0.08
    ##  9 Control     09         1      0.08
    ## 10 Control     10         1      2.14
    ## # … with 150 more rows
…
